{
  "": {
    "language": "en",
    "plural-forms": "nplurals=2; plural=(n!=1);"
  },
  "Create sources for Meta-Press.es": "",
  "📰 New sources": "",
  "You can define more sources to search in, adding the corresponding instructions in the following JSON editing text area.": "",
  "Some ": "",
  "instructions": "",
  " about how to define a source can be found": "",
  "here": "",
  "(en/fr) and more examples are shown below.": "",
  "Line number ": "",
  " ; column number ": "",
  "💾  Save": "",
  "↶  Reset": "",
  "Reload your Meta-Press.es addon tab to take your changes into account.": "",
  "Put ": "",
  "valid JSON": "",
  " here, use only double quotes: ": "",
  " ; and no trailling comas: ": "",
  "Here are the ": "",
  "provided sources": "",
  " to help you finding inspiration with examples. For instance :": "",
  " provides results in ": "",
  "extends": "",
  "the ": "",
  " uses the HTTP ": "",
  " method;": "",
  " uses ": "",
  " selectors to parse HTML;": "",
  "s to parse some fields.": "",
  "Added sources will remain accessible between searches and updates.": "",
  "If you defined usefull sources, or if you still have questions after ": "",
  "reading the doc": "",
  "Please copy/paste us the corresponding JavaScript object": "",
  " or your questions:": "",
  "by email at ": "",
  "via the ": "",
  "code repository": "",
  ", creating an issue or a pull request.": "",
  "or via ": "",
  "You can also help me dedicating more time to this project supporting Meta-Press.es via:": "",
  "one shot (or recurring) donations: ": "",
  " HelloAsso": "",
  "recurring donations: ": "",
  "cryptocurrencies: ": "",
  "Bitcoin": "",
  "Ethereum": "",
  "This page uses ": "",
  ", and ": "",
  "Artwork by ": "",
  "Meta-Press.es logo by Elisa de Castro Guerra": "",
  "https://www.meta-press.es/pages/meta-press.es_documentation.html#_how_to_add_a_new_source_to_the_search_engine": "",
  "https://developer.mozilla.org/en-US/docs/Web/JavaScript/Reference/Global_Objects/JSON/parse": "",
  "https://wiki.laquadrature.net/How_to_IRC": "",
  "https://www.helloasso.com/associations/meta-press-es/formulaires/1/en": "",
  "Settings of Meta-Press.es": "",
  "⚙ Settings": "",
  " General": "",
  "Language: ": "",
  "Default": "",
  "Dark background: ": "",
  "Auto": "",
  "Dark": "",
  "Light": "",
  "Reload search when source filters change: ": "",
  "Automaticaly search in single or many words capable sources: ": "",
  "🔍 Search": "",
  "Max. results by source: ": "",
  "Deduplicate results (based on title): ": "",
  "Load photos in results: ": "",
  "📢 News": "",
  "Automatically load news: ": "",
  "Reload news when source filters change: ": "",
  "Max. loaded elements: ": "",
  "Default page size: ": "",
  "🔐 Permissions": "",
  "To be able to read results from the sources, Meta-Press.es needs their \"host permission\".": "",
  "Request all host permissions: ": "",
  "Request": "",
  "Remember host permissions: ": "",
  "Drop all host permissions: ": "",
  "Drop": "",
  "⏰ Automatic search": "",
  "You can schedule searches. Set the search you want from the ": "",
  "main interface": "",
  " and click its ⏰ ": "",
  "schedule search": "",
  " button.": "",
  "Timezone: ": "",
  "Search terms": "",
  "Last search": "",
  "Next search date": "",
  "Periodicity": "",
  "Hourly": "",
  "Daily": "",
  "Weekly": "",
  "Monthly": "",
  "Stop": "",
  " create source": "",
  "Support": "",
  "Save date / time change": "",
  "Edit": "",
  "Clone": "",
  "Delete": "",
  "Launch": "",
  "icon": "",
  "Clone line": "",
  "Import: ": "",
  "A propos": "",
  "Position the cursor still over elements to get more info on them.": "",
  "Settings": "",
  "Decentralized press meta-search engine": "",
  "Click here to consult the official online documentation": "",
  "Enter your search terms and click on the sided button to start it": "",
  "Show: ": "",
  "all": "",
  " news ": "",
  "Load some news": "",
  "Cancel": "",
  "Advanced search": "",
  "Type:": "",
  "Agenda": "",
  "Database": "",
  "Encyclo.": "",
  "Illustrated": "",
  "Institution": "",
  "Magazine": "",
  "Peer review": "",
  "Press": "",
  "Radio": "",
  "Reference Press": "",
  "Scientific Press": "",
  "TV": "",
  "Language:": "",
  "undefined": "",
  "Result type:": "",
  "audio": "",
  "photo": "",
  "text": "",
  "video": "",
  "Themes:": "",
  "docu.": "",
  "ecology": "",
  "espace": "",
  "events": "",
  "financial": "",
  "general": "",
  "life-style": "",
  "media": "",
  "politics": "",
  "science": "",
  "techno.": "",
  "Technical criterion:": "",
  "approx": "",
  "exact": "",
  "external search": "",
  "fast": "",
  "internal search": "",
  "many words": "",
  "never empty": "",
  "one word": "",
  " (1822)": "",
  "slow": "",
  "Country:": "",
  "Cherry-pick sources:": "",
  "Currently ": "",
  " selected source(s). ": "",
  " reset filters": "",
  "⏰ schedule search": "",
  " is ": "",
  "waiting for ": "",
  " source(s)": "",
  " over ": "",
  " selected, since ": "",
  " fetched ": "",
  " results for \"": "",
  " in ": "",
  " s from ": "",
  " source(s) over ": "",
  " selected.": "",
  "Please consider a small ": "",
  "donation": "",
  " to help keeping Meta-Press.es up-to-date.": "",
  "No results.": "",
  "Start test": "",
  "Retest": "",
  "Number of results by page:": "",
  "Total": "",
  "Last day": "",
  "Last 2 days": "",
  "Last 3 days": "",
  "Last week": "",
  "Last 2 wks": "",
  "Last month": "",
  "Last 2 mon.": "",
  "Last 6 mon.": "",
  "Last year": "",
  "Last 2 yrs": "",
  "Last 5 yrs": "",
  "Last decade": "",
  "All results": "",
  "Save search as:": "",
  "RSS file": "",
  "Selection mode:": "",
  "✅ toggle": "",
  "Export selection in:": "",
  "Refresh sources": "",
  "Sources: ": "",
  " for ": "",
  " countries and ": "",
  " languages.": "",
  "⇬ Back to top": "",
  "✍ Report feedback": "",
  "€ Support the project": "",
  " WebExtension made by ": "",
  " with ": "",
  " and ": "",
  "Meta-Press.es needs the permission to read the content of the selected sources.\nThose \"host\" permissions can be dropped or requested once and for all via the\nMeta-Press.es setting page.": "",
  "Mobile Dev Tools": "",
  "Skip to main input": "",
  "RSS feed file": "",
  "Like this :-)": "",
  "Documentation": "",
  "Search": "",
  "Show this quantity of headlines at once": "",
  "Reload the news": "",
  "Remove the news": "",
  "Type your query here": "",
  "Click here to start the search. You can also press the Enter key.": "",
  "Click to reload the page and start a new search": "",
  "Criterion to restrict the research to some sources only. For instance, if you want only French sources, select the 'fr' tag in the Country filter.": "",
  "Only sources of the selected types (press, radio, TV…) will be searched": "",
  "Only sources in the selected languages will be searched": "",
  "Only sources producing results from those selected types will be searched": "",
  "Only sources of the selected themes will be searched": "",
  "Only sources corresponding to all those selected criterion will be searched": "",
  "Only sources from the selected contries will be searched": "",
  "You can also select one by one in which sources to search in": "",
  "Reset default selection": "",
  "Schedule this search": "",
  "Local permalink for this search": "",
  "Please donate today": "",
  "No results, because of a torn butterfly net?": "",
  "Click to display all results again": "",
  "Remove results of this source": "",
  "Link to the results in the source site": "",
  "Clear filter": "",
  "toggle selection mode": "",
  "Libres Software Service Society": "",
  "Adding search, sort, filters and flexibility to various existing HTML element collections.": "",
  "A vanilla, lightweight, configurable select box/text input plugin. Similar to Select2 and Selectize but without the jQuery dependency.": "",
  "Click to load image": "",
  "save modification": "",
  "New result for scheduled search": "",
  " new ": "",
  "This choice would result in an empty selection.": "",
  "Filter results of": "",
  "only": "",
  "Your navigator timezone": "",
  "Meta-Press.es butterfly net logo": "",
  "Search terms, ex.": "",
  "Filter results": "",
  "https://www.meta-press.es/pages/a_propos.html#_you_can_support_this_work": "",
  "Welcome to Meta-Press.es": "",
  " Welcome": "",
  "To open the search engine, click the [": "",
  "] icon in the Firefox bar :": "",
  "Click ": "",
  " to read the documentation.": "",
  "Permissions": "",
  "Here is what Meta-Press.es is doing with the permissions it asks for :": "",
  " the ": "",
  "host permission": "",
  " is needed to read results from the queried source, only those sources are targeted, and permissions can be dropped between searches": "",
  "notification": "",
  " permission is only used to signal the end of a long search or new results in a scheduled search": "",
  "alarm": "",
  " permission is used to schedule searches": "",
  "storage": "",
  " permission is used to remember settings and custom sources": "",
  "Also, this addon periodically (usually once a year) opens the \"journal\" page of the Meta-Press.es project website to present new features.": "",
  "Simon Descarpentries is working on this free / libre software since 2013.": "",
  "You can help him dedicating more time to this project supporting Meta-Press.es via:": "",
  "recurring donations:": ""
}